{
	"info": {
		"_postman_id": "308f7717-5b27-49f9-9a2b-9d65df3e8559",
		"name": "events_api",
		"description": "seed",
		"schema": "https://schema.getpostman.com/json/collection/v2.1.0/collection.json"
	},
	"item": [
		{
			"name": "Create New Event",
			"request": {
				"method": "POST",
				"header": [
					{
						"key": "Content-Type",
						"value": "application/json",
						"type": "text"
					}
				],
				"body": {
					"mode": "raw",
					"raw": "{\n        \"creator_id\": \"19\",\n        \"finishes_at\": \"2019-07-03T20:49:00Z\",\n        \"max_num_of_participants\": \"10\",\n        \"min_num_of_participants_to_start\": \"8\",\n        \"name\": \"Michotito2\",\n        \"participants\": [\n            \"34\",\n            \"45\"\n        ],\n        \"starts_at\": \"2019-06-25T20:49:00Z\",\n        \"status\": \"created\",\n        \"type\": \"futbol\"\n    }"
				},
				"url": {
					"raw": "http://{{events_ip}}/events",
					"protocol": "http",
					"host": [
						"{{events_ip}}"
					],
					"path": [
						"events"
					]
				},
				"description": "Create event"
			},
			"response": []
		},
		{
			"name": "Update Event",
			"request": {
				"method": "PUT",
				"header": [
					{
						"key": "Content-Type",
						"type": "text",
						"value": "application/json"
					}
				],
				"body": {
					"mode": "raw",
					"raw": "{\n    \"creator_id\": \"19\",\n    \"max_num_of_participants\": \"10\",\n    \"min_num_of_participants_to_start\": \"8\",\n    \"name\": \"another name\",\n    \"status\": \"started\"\n}"
				},
				"url": {
					"raw": "http://{{events_ip}}/events/4/participants/34",
					"protocol": "http",
					"host": [
						"{{events_ip}}"
					],
					"path": [
						"events",
						"4",
						"participants",
						"34"
					]
				},
				"description": "Create event"
			},
			"response": []
		},
		{
			"name": "Delete Event",
			"request": {
				"method": "DELETE",
				"header": [
					{
						"key": "Content-Type",
						"type": "text",
						"value": "application/json"
					}
				],
				"body": {
					"mode": "raw",
					"raw": ""
				},
				"url": {
					"raw": "http://{{events_ip}}/events/1",
					"protocol": "http",
					"host": [
						"{{events_ip}}"
					],
					"path": [
						"events",
						"1"
					]
				},
				"description": "Deletes an event (soft delete)"
			},
			"response": []
		},
		{
			"name": "Add new participant",
			"request": {
				"method": "POST",
				"header": [
					{
						"key": "Content-Type",
						"type": "text",
						"value": "application/json"
					}
				],
				"body": {
					"mode": "raw",
					"raw": "{\n\t\"participant_id\": \"34\"\n}"
				},
				"url": {
					"raw": "http://{{events_ip}}/events/1/participant",
					"protocol": "http",
					"host": [
						"{{events_ip}}"
					],
					"path": [
						"events",
						"1",
						"participant"
					]
				},
				"description": "Create event"
			},
			"response": []
		},
		{
			"name": "Get participants from event",
			"protocolProfileBehavior": {
				"disableBodyPruning": true
			},
			"request": {
				"method": "GET",
				"header": [
					{
						"key": "Content-Type",
						"type": "text",
						"value": "application/json"
					}
				],
				"body": {
					"mode": "raw",
					"raw": ""
				},
				"url": {
					"raw": "http://{{events_ip}}/events/1/participants",
					"protocol": "http",
					"host": [
						"{{events_ip}}"
					],
					"path": [
						"events",
						"1",
						"participants"
					]
				},
				"description": "Create event"
			},
			"response": []
		},
		{
			"name": "Get ALL events",
			"protocolProfileBehavior": {
				"disableBodyPruning": true
			},
			"request": {
				"method": "GET",
				"header": [
					{
						"key": "Content-Type",
						"type": "text",
						"value": "application/json"
					}
				],
				"body": {
					"mode": "raw",
					"raw": ""
				},
				"url": {
					"raw": "http://{{events_ip}}/events",
					"protocol": "http",
					"host": [
						"{{events_ip}}"
					],
					"path": [
						"events"
					]
				},
				"description": "Create event"
			},
			"response": []
		},
		{
			"name": "Get events by Filters",
			"protocolProfileBehavior": {
				"disableBodyPruning": true
			},
			"request": {
				"method": "GET",
				"header": [
					{
						"key": "Content-Type",
						"type": "text",
						"value": "application/json"
					}
				],
				"body": {
					"mode": "raw",
					"raw": ""
				},
				"url": {
					"raw": "http://{{events_ip}}/events/?creator_id=19&id=2&name=Michotito2",
					"protocol": "http",
					"host": [
						"{{events_ip}}"
					],
					"path": [
						"events",
						""
					],
					"query": [
						{
							"key": "creator_id",
							"value": "19"
						},
						{
							"key": "id",
							"value": "2"
						},
						{
							"key": "name",
							"value": "Michotito2"
						}
					]
				},
				"description": "Create event"
			},
			"response": []
		},
		{
			"name": "Get events by Filters with exclude",
			"protocolProfileBehavior": {
				"disableBodyPruning": true
			},
			"request": {
				"method": "GET",
				"header": [
					{
						"key": "Content-Type",
						"type": "text",
						"value": "application/json"
					}
				],
				"body": {
					"mode": "raw",
					"raw": ""
				},
				"url": {
					"raw": "http://{{events_ip}}/events?exclude_creator_ids=19,10157194733429561",
					"protocol": "http",
					"host": [
						"{{events_ip}}"
					],
					"path": [
						"events"
					],
					"query": [
						{
							"key": "exclude_creator_ids",
							"value": "19,10157194733429561"
						}
					]
				},
				"description": "Create event"
			},
			"response": []
		},
		{
			"name": "DELETE Participant from list",
			"request": {
				"method": "DELETE",
				"header": [
					{
						"key": "Content-Type",
						"name": "Content-Type",
						"value": "application/json",
						"type": "text"
					}
				],
				"url": {
					"raw": "http://{{events_ip}}/events/900/participants/42",
					"protocol": "http",
					"host": [
						"{{events_ip}}"
					],
					"path": [
						"events",
						"900",
						"participants",
						"42"
					]
				}
			},
			"response": []
		}
	]
}